doc& output/wave.vcd
$date
	Thu Dec  7 02:29:44 2023
$end

$version
	Synopsys VCS version O-2018.09-1_Full64
$end

$timescale
	1ps
$end

$comment Csum: 1 10acbad12e04af40 $end


$scope module $unit $end
$upscope $end


$scope module top_tb $end
$var reg 1 ! clk $end

$scope module i1 $end
$var reg 1 " clk $end
$var reg 1 # rst_n $end
$var reg 1 $ alu_enable_a $end
$var reg 1 % alu_enable_b $end
$var reg 1 & alu_enable $end
$var reg 1 ' alu_irq_clr $end
$var reg 2 ( alu_op_a [1:0] $end
$var reg 2 ) alu_op_b [1:0] $end
$var reg 8 * alu_in_a [7:0] $end
$var reg 8 + alu_in_b [7:0] $end
$var reg 1 , alu_irq $end
$var reg 8 - alu_out [7:0] $end
$upscope $end


$scope module dut $end
$upscope $end

$upscope $end

$enddefinitions $end

#0
$dumpvars
0!
b00000000 -
bxxxxxxxx +
bxxxxxxxx *
bxx )
bxx (
0"
x&
x$
x%
0,
x'
0#
$end
#15000
1!
1"
0$
1%
0&
1'
b00 (
b11 )
b01011110 *
b01111000 +
#30000
0!
0"
#45000
1!
1"
#60000
0!
0"
#75000
1!
1"
#90000
0!
0"
#105000
1!
1"
1#
1$
0%
1&
0'
b00 )
b01111000 *
b01111110 +
#120000
0!
0"
#135000
1!
1"
b01111000 -
#150000
0!
0"
#165000
1!
1"
#180000
0!
0"
#195000
1!
1"
1'
b10 (
b10 )
b01101111 *
b00001101 +
#210000
0!
0"
#225000
1!
1"
b01101111 -
#240000
0!
0"
#255000
1!
1"
#270000
0!
0"
#285000
1!
1"
0'
b11 (
b11 )
b01100111 *
b01001100 +
#300000
0!
0"
#315000
1!
1"
b00101011 -
#330000
0!
0"
#345000
1!
1"
#360000
0!
0"
#375000
1!
1"
b00 (
b00 )
b10111011 *
b01111111 +
#390000
0!
0"
#405000
1!
1"
b00111011 -
#420000
0!
0"
#435000
1!
1"
#450000
0!
0"
#465000
1!
1"
b01 (
b11 )
b01101110 *
b00110101 +
#480000
0!
0"
#495000
1!
1"
b11011011 -
#510000
0!
0"
#525000
1!
1"
#540000
0!
0"
#555000
1!
1"
1'
b10 (
b00 )
b01000101 *
b11100001 +
#570000
0!
0"
#585000
1!
1"
b11100101 -
#600000
0!
0"
#615000
1!
1"
#630000
0!
0"
#645000
1!
1"
b11 (
b01 )
b01100100 *
b01110101 +
#660000
0!
0"
#675000
1!
1"
b00010001 -
#690000
0!
0"
#705000
1!
1"
#720000
0!
0"
#735000
1!
1"
0'
b10 (
b11 )
b00110111 *
b11111110 +
#750000
0!
0"
#765000
1!
1"
b11111111 -
#780000
0!
0"
#795000
1!
1"
#810000
0!
0"
#825000
1!
1"
b00 (
b10 )
b10101101 *
b01000000 +
#840000
0!
0"
#855000
1!
1"
b00000000 -
#870000
0!
0"
#885000
1!
1"
#900000
0!
0"
#915000
1!
1"
b11 (
b11 )
b01011100 *
b00101110 +
#930000
0!
0"
#945000
1!
1"
b01110010 -
#960000
0!
0"
#975000
1!
1"
#990000
0!
0"
#1005000
1!
1"
b00 (
b01 )
b00100011 *
b00001100 +
#1020000
0!
0"
#1035000
1!
1"
b00000000 -
#1050000
0!
0"
#1065000
1!
1"
#1080000
0!
0"
#1095000
1!
1"
1'
b01 (
b10 )
b01001001 *
b10001011 +
#1110000
0!
0"
#1125000
1!
1"
b11110110 -
#1140000
0!
0"
#1155000
1!
1"
#1170000
0!
0"
#1185000
1!
1"
b11 (
b01 )
b01010100 *
b11101000 +
#1200000
0!
0"
#1215000
1!
1"
b10111100 -
#1230000
0!
0"
#1245000
1!
1"
#1260000
0!
0"
#1275000
1!
1"
0'
b00 (
b11 )
b10011010 *
b11110001 +
#1290000
0!
0"
#1305000
1!
1"
b10010000 -
#1320000
0!
0"
#1335000
1!
1"
#1350000
0!
0"
#1365000
1!
1"
1'
b10 (
b00 )
b00110111 *
b10100101 +
#1380000
0!
0"
#1395000
1!
1"
b10110111 -
#1410000
0!
0"
#1425000
1!
1"
#1440000
0!
0"
#1455000
1!
1"
b01 (
b10 )
b10101111 *
b00110101 +
#1470000
0!
0"
#1485000
1!
1"
b11011010 -
#1500000
0!
0"
#1515000
1!
1"
#1530000
0!
0"
#1545000
1!
1"
b11 )
b01010001 *
b11011011 +
#1560000
0!
0"
#1575000
1!
1"
b10101110 -
#1590000
0!
0"
#1605000
1!
1"
#1620000
0!
0"
#1635000
1!
1"
b11 (
b00 )
b01111110 *
b01001001 +
#1650000
0!
0"
#1665000
1!
1"
b00110111 -
#1680000
0!
0"
#1695000
1!
1"
#1710000
0!
0"
#1725000
1!
1"
b01 (
b01 )
b11001110 *
b01111010 +
#1740000
0!
0"
#1755000
1!
1"
b10110101 -
#1770000
0!
0"
#1785000
1!
1"
#1800000
0!
0"
#1815000
1!
1"
b11 (
b11 )
b11100001 *
b01100101 +
#1830000
0!
0"
#1845000
1!
1"
b10000100 -
#1860000
0!
0"
#1875000
1!
1"
#1890000
0!
0"
#1905000
1!
1"
0'
b01 (
b01 )
b11100101 *
b00011110 +
#1920000
0!
0"
#1935000
1!
1"
b11111011 -
#1950000
0!
0"
#1965000
1!
1"
#1980000
0!
0"
#1995000
1!
1"
1'
b10 (
b10 )
b10011001 *
b00010110 +
#2010000
0!
0"
#2025000
1!
1"
b10011111 -
#2040000
0!
0"
#2055000
1!
1"
#2070000
0!
0"
#2085000
1!
1"
0'
b11 (
b11 )
b00010100 *
b01011111 +
#2100000
0!
0"
#2115000
1!
1"
b01001011 -
#2130000
0!
0"
#2145000
1!
1"
#2160000
0!
0"
#2175000
1!
1"
b00 (
b11110011 *
b01100101 +
#2190000
0!
0"
#2205000
1!
1"
b01100001 -
#2220000
0!
0"
#2235000
1!
1"
#2250000
0!
0"
#2265000
1!
1"
b10 (
b01 )
b10100100 *
b01110110 +
#2280000
0!
0"
#2295000
1!
1"
b11110110 -
#2310000
0!
0"
#2325000
1!
1"
#2340000
0!
0"
#2355000
1!
1"
b01 (
b10 )
b01001011 *
b10010010 +
#2370000
0!
0"
#2385000
1!
1"
b11111101 -
#2400000
0!
0"
#2415000
1!
1"
#2430000
0!
0"
#2445000
1!
1"
1'
b00 (
b01 )
b01111000 *
b01111110 +
#2460000
0!
0"
#2475000
1!
1"
b01111000 -
#2490000
0!
0"
#2505000
1!
1"
#2520000
0!
0"
#2535000
1!
1"
b01 (
b10 )
b10101010 *
b11000010 +
#2550000
0!
0"
#2565000
1!
1"
b01111101 -
#2580000
0!
0"
#2595000
1!
1"
#2610000
0!
0"
#2625000
1!
1"
b11 (
b00 )
b10110100 *
b11111010 +
#2640000
0!
0"
#2655000
1!
1"
b01001110 -
#2670000
0!
0"
#2685000
1!
1"
#2700000
0!
0"
#2715000
1!
1"
0'
b10 (
b11 )
b11100110 *
b10001110 +
#2730000
0!
0"
#2745000
1!
1"
b11101110 -
#2760000
0!
0"
#2775000
1!
1"
#2790000
0!
0"
#2805000
1!
1"
1'
b10110110 *
b01011000 +
#2820000
0!
0"
#2835000
1!
1"
b11111110 -
#2850000
0!
0"
#2865000
1!
1"
#2880000
0!
0"
#2895000
1!
1"
0'
b10 )
b11101000 *
b10110001 +
#2910000
0!
0"
#2925000
1!
1"
b11111001 -
#2940000
0!
0"
#2955000
1!
1"
#2970000
0!
0"
#2985000
1!
1"
1'
b11 )
b10000100 *
b11100001 +
#3000000
0!
0"
#3015000
1!
1"
b11100101 -
#3030000
0!
0"
#3045000
1!
1"
#3060000
0!
0"
#3075000
1!
1"
b11 (
b00111100 *
b11111100 +
#3090000
0!
0"
#3105000
1!
1"
b11000000 -
#3120000
0!
0"
#3135000
1!
1"
#3150000
0!
0"
#3165000
1!
1"
b00 (
b01 )
b10110011 *
b10101101 +
#3180000
0!
0"
#3195000
1!
1"
b10100001 -
#3210000
0!
0"
#3225000
1!
1"
#3240000
0!
0"
#3255000
1!
1"
0'
b10 )
b10111101 *
b11100001 +
#3270000
0!
0"
#3285000
1!
1"
#3300000
0!
0"
#3315000
1!
1"
#3330000
0!
0"
#3345000
1!
1"
b10 (
b00 )
b10100110 *
b01011010 +
#3360000
0!
0"
#3375000
1!
1"
b11111110 -
#3390000
0!
0"
#3405000
1!
1"
#3420000
0!
0"
#3435000
1!
1"
1'
b00 (
b11 )
b00100100 *
b10001110 +
#3450000
0!
0"
#3465000
1!
1"
b00000100 -
#3480000
0!
0"
#3495000
1!
1"
#3510000
0!
0"
#3525000
1!
1"
b01 (
b10 )
b10000001 *
b10001010 +
#3540000
0!
0"
#3555000
1!
1"
b01111111 -
#3570000
0!
0"
#3585000
1!
1"
#3600000
0!
0"
#3615000
1!
1"
0'
b11 (
b11 )
b01010110 *
b00011111 +
#3630000
0!
0"
#3645000
1!
1"
b01001001 -
#3660000
0!
0"
#3675000
1!
1"
#3690000
0!
0"
#3705000
1!
1"
b10 (
b01 )
b00000011 *
b01110000 +
#3720000
0!
0"
#3735000
1!
1"
b01110011 -
#3750000
0!
0"
#3765000
1!
1"
#3780000
0!
0"
#3795000
1!
1"
1'
b01 (
b00011100 *
b00001111 +
#3810000
0!
0"
#3825000
1!
1"
b11110011 -
#3840000
0!
0"
#3855000
1!
1"
#3870000
0!
0"
#3885000
1!
1"
b00 )
b11111110 *
b10011000 +
#3900000
0!
0"
#3915000
1!
1"
b01100111 -
#3930000
0!
0"
#3945000
1!
1"
#3960000
0!
0"
#3975000
1!
1"
b10 (
b10 )
b10011101 *
b10110010 +
#3990000
0!
0"
#4005000
1!
1"
b10111111 -
#4020000
0!
0"
#4035000
1!
1"
#4050000
0!
0"
#4065000
1!
1"
0'
b00011100 *
b10101000 +
#4080000
0!
0"
#4095000
1!
1"
b10111100 -
#4110000
0!
0"
#4125000
1!
1"
#4140000
0!
0"
#4155000
1!
1"
1'
b00 (
b00011010 *
b10110111 +
#4170000
0!
0"
#4185000
1!
1"
b00010010 -
#4200000
0!
0"
#4215000
1!
1"
#4230000
0!
0"
#4245000
1!
1"
0'
b10 (
b01 )
b10100000 *
b01010111 +
#4260000
0!
0"
#4275000
1!
1"
b11110111 -
#4290000
0!
0"
#4305000
1!
1"
#4320000
0!
0"
#4335000
1!
1"
1'
b01 (
b00 )
b00000110 *
b01001011 +
#4350000
0!
0"
#4365000
1!
1"
b11111101 -
#4380000
0!
0"
#4395000
1!
1"
#4410000
0!
0"
#4425000
1!
1"
b00 (
b11 )
b10111101 *
b10001111 +
#4440000
0!
0"
#4455000
1!
1"
b10001101 -
#4470000
0!
0"
#4485000
1!
1"
#4500000
0!
0"
#4515000
1!
1"
0'
b10 (
b00111100 *
b00111001 +
#4530000
0!
0"
#4545000
1!
1"
b00111101 -
#4560000
0!
0"
#4575000
1!
1"
#4590000
0!
0"
#4605000
1!
1"
1'
b11 (
b01 )
b10111001 *
b11011000 +
#4620000
0!
0"
#4635000
1!
1"
b01100001 -
#4650000
0!
0"
#4665000
1!
1"
#4680000
0!
0"
#4695000
1!
1"
0'
b00 (
b11 )
b01001010 *
b10010101 +
#4710000
0!
0"
#4725000
1!
1"
b00000000 -
#4740000
0!
0"
#4755000
1!
1"
#4770000
0!
0"
#4785000
1!
1"
1'
b11011011 *
b10110100 +
#4800000
0!
0"
#4815000
1!
1"
b10010000 -
#4830000
0!
0"
#4845000
1!
1"
#4860000
0!
0"
#4875000
1!
1"
0'
b11 (
b00 )
b10110111 *
b11110101 +
#4890000
0!
0"
#4905000
1!
1"
b01000010 -
#4920000
0!
0"
#4935000
1!
1"
#4950000
0!
0"
#4965000
1!
1"
1'
b01 (
b01 )
b11101001 *
b00101101 +
#4980000
0!
0"
#4995000
1!
1"
b11010110 -
#5010000
0!
0"
#5025000
1!
1"
#5040000
0!
0"
#5055000
1!
1"
0'
b00 )
b00111110 *
b01001010 +
#5070000
0!
0"
#5085000
1!
1"
b11110101 -
#5100000
0!
0"
#5115000
1!
1"
#5130000
0!
0"
#5145000
1!
1"
1'
b01 )
b11111101 *
b01000100 +
#5160000
0!
0"
#5175000
1!
1"
b10111011 -
#5190000
0!
0"
#5205000
1!
1"
#5220000
0!
0"
#5235000
1!
1"
b11 )
b00111100 *
b00000111 +
#5250000
0!
0"
#5265000
1!
1"
b11111011 -
#5280000
0!
0"
#5295000
1!
1"
#5310000
0!
0"
#5325000
1!
1"
b10 )
b01111100 *
b11010011 +
#5340000
0!
0"
#5355000
1!
1"
b10101111 -
#5370000
0!
0"
#5385000
1!
1"
#5400000
0!
0"
#5415000
1!
1"
0'
b11 )
b01100110 *
b11011100 +
#5430000
0!
0"
#5445000
1!
1"
b10111011 -
#5460000
0!
0"
#5475000
1!
1"
#5490000
0!
0"
#5505000
1!
1"
1'
b01 )
b11011001 *
b10010111 +
#5520000
0!
0"
#5535000
1!
1"
b01101110 -
#5550000
0!
0"
#5565000
1!
1"
#5580000
0!
0"
#5595000
1!
1"
b00 (
b00 )
b01001010 *
b01110110 +
#5610000
0!
0"
#5625000
1!
1"
b01000010 -
#5640000
0!
0"
#5655000
1!
1"
#5670000
0!
0"
#5685000
1!
1"
0'
b01 (
b10 )
b01001101 *
b00000111 +
#5700000
0!
0"
#5715000
1!
1"
b11111010 -
#5730000
0!
0"
#5745000
1!
1"
#5760000
0!
0"
#5775000
1!
1"
1'
b00 (
b10111110 *
b00001000 +
#5790000
0!
0"
#5805000
1!
1"
b00001000 -
#5820000
0!
0"
#5835000
1!
1"
#5850000
0!
0"
#5865000
1!
1"
b11 (
b00 )
b11001000 *
b11101111 +
#5880000
0!
0"
#5895000
1!
1"
b00100111 -
#5910000
0!
0"
#5925000
1!
1"
#5940000
0!
0"
#5955000
1!
1"
b10 )
b10010111 *
b00111000 +
#5970000
0!
0"
#5985000
1!
1"
b10101111 -
#6000000
0!
0"
#6015000
1!
1"
#6030000
0!
0"
#6045000
1!
1"
b00 (
b00 )
b11100111 *
b10101000 +
#6060000
0!
0"
#6075000
1!
1"
b10100000 -
#6090000
0!
0"
#6105000
1!
1"
#6120000
0!
0"
#6135000
1!
1"
b01 (
b11 )
b11111100 *
b10000101 +
#6150000
0!
0"
#6165000
1!
1"
b01111011 -
#6180000
0!
0"
#6195000
1!
1"
#6210000
0!
0"
#6225000
1!
1"
0'
b01010000 *
b01101110 +
#6240000
0!
0"
#6255000
1!
1"
b10111111 -
#6270000
0!
0"
#6285000
1!
1"
#6300000
0!
0"
#6315000
1!
1"
1'
b10 )
b00011000 *
b11001010 +
#6330000
0!
0"
#6345000
1!
1"
b11110111 -
#6360000
0!
0"
#6375000
1!
1"
#6390000
0!
0"
#6405000
1!
1"
b00 (
b11 )
b00111011 *
b01100100 +
#6420000
0!
0"
#6435000
1!
1"
b00100000 -
#6450000
0!
0"
#6465000
1!
1"
#6480000
0!
0"
#6495000
1!
1"
0'
b00 )
b11101101 *
b01100011 +
#6510000
0!
0"
#6525000
1!
1"
b01100001 -
#6540000
0!
0"
#6555000
1!
1"
#6570000
0!
0"
#6585000
1!
1"
1'
b10 (
b01 )
b11101111 *
b00101101 +
#6600000
0!
0"
#6615000
1!
1"
b11101111 -
#6630000
0!
0"
#6645000
1!
1"
#6660000
0!
0"
#6675000
1!
1"
b00 (
b10 )
b01111110 *
b00001001 +
#6690000
0!
0"
#6705000
1!
1"
b00001000 -
#6720000
0!
0"
#6735000
1!
1"
#6750000
0!
0"
#6765000
1!
1"
b10 (
b01 )
b11101111 *
b01101101 +
#6780000
0!
0"
#6795000
1!
1"
b11101111 -
#6810000
0!
0"
#6825000
1!
1"
#6840000
0!
0"
#6855000
1!
1"
b00 )
b11111111 *
b11110100 +
#6870000
0!
0"
#6885000
1!
1"
b11111111 -
#6900000
0!
0"
#6915000
1!
1"
#6930000
0!
0"
#6945000
1!
1"
0'
b11 (
b01 )
b11011011 *
b11011100 +
#6960000
0!
0"
#6975000
1!
1"
b00000111 -
#6990000
0!
0"
#7005000
1!
1"
#7020000
0!
0"
#7035000
1!
1"
b10 (
b01001101 *
b01010101 +
#7050000
0!
0"
#7065000
1!
1"
b01011101 -
#7080000
0!
0"
#7095000
1!
1"
#7110000
0!
0"
#7125000
1!
1"
b10 )
b11110100 *
b01000110 +
#7140000
0!
0"
#7155000
1!
1"
b11110110 -
#7170000
0!
0"
#7185000
1!
1"
#7200000
0!
0"
#7215000
1!
1"
1'
b11 (
b00100100 *
b11110011 +
#7230000
0!
0"
#7245000
1!
1"
b11010111 -
#7260000
0!
0"
#7275000
1!
1"
#7290000
0!
0"
#7305000
1!
1"
0'
b00 (
b10100110 *
b11101001 +
#7320000
0!
0"
#7335000
1!
1"
b10100000 -
#7350000
0!
0"
#7365000
1!
1"
#7380000
0!
0"
#7395000
1!
1"
b11 (
b11011010 *
b01001010 +
#7410000
0!
0"
#7425000
1!
1"
b10010000 -
#7440000
0!
0"
#7455000
1!
1"
#7470000
0!
0"
#7485000
1!
1"
1'
b01 (
b11 )
b10010000 *
b00100001 +
#7500000
0!
0"
#7515000
1!
1"
b11111111 -
#7530000
0!
0"
#7545000
1!
1"
#7560000
0!
0"
#7575000
1!
1"
0'
b11 (
b01 )
b00011110 *
b11100101 +
#7590000
0!
0"
#7605000
1!
1"
b11111011 -
#7620000
0!
0"
#7635000
1!
1"
#7650000
0!
0"
#7665000
1!
1"
1'
b00 (
b10 )
b01001001 *
b10010111 +
#7680000
0!
0"
#7695000
1!
1"
b00000001 -
#7710000
0!
0"
#7725000
1!
1"
#7740000
0!
0"
#7755000
1!
1"
b01 )
b11101110 *
b11000011 +
#7770000
0!
0"
#7785000
1!
1"
b11000010 -
#7800000
0!
0"
#7815000
1!
1"
#7830000
0!
0"
#7845000
1!
1"
0'
b10 (
b10110111 *
b11001000 +
#7860000
0!
0"
#7875000
1!
1"
b11111111 -
#7890000
0!
0"
#7905000
1!
1"
#7920000
0!
0"
#7935000
1!
1"
1'
b00 (
b10110100 *
b01010101 +
#7950000
0!
0"
#7965000
1!
1"
b00010100 -
#7980000
0!
0"
#7995000
1!
1"
#8010000
0!
0"
#8025000
1!
1"
b01 (
b00 )
b01010111 *
b11001111 +
#8040000
0!
0"
#8055000
1!
1"
b10111000 -
#8070000
0!
0"
#8085000
1!
1"
#8100000
0!
0"
#8115000
1!
1"
b10 (
b10 )
b11101010 *
b11011100 +
#8130000
0!
0"
#8145000
1!
1"
b11111110 -
#8160000
0!
0"
#8175000
1!
1"
#8190000
0!
0"
#8205000
1!
1"
0'
b00 (
b01010001 *
b01010000 +
#8220000
0!
0"
#8235000
1!
1"
b01010000 -
#8250000
0!
0"
#8265000
1!
1"
#8280000
0!
0"
#8295000
1!
1"
1'
b11 (
b01 )
b10001011 *
b11100010 +
#8310000
0!
0"
#8325000
1!
1"
b01101001 -
#8340000
0!
0"
#8355000
1!
1"
#8370000
0!
0"
#8385000
1!
1"
b01 (
b11 )
b10100110 *
b01001111 +
#8400000
0!
0"
#8415000
1!
1"
b11111001 -
#8430000
0!
0"
#8445000
1!
1"
#8460000
0!
0"
#8475000
1!
1"
b00 (
b01 )
b11110101 *
b11100001 +
#8490000
0!
0"
#8505000
1!
1"
b11100001 -
#8520000
0!
0"
#8535000
1!
1"
#8550000
0!
0"
#8565000
1!
1"
b10 (
b01000011 *
b11011011 +
#8580000
0!
0"
#8595000
1!
1"
b11011011 -
#8610000
0!
0"
#8625000
1!
1"
#8640000
0!
0"
#8655000
1!
1"
b11 )
b10101000 *
b01010101 +
#8670000
0!
0"
#8685000
1!
1"
b11111101 -
#8700000
0!
0"
#8715000
1!
1"
#8730000
0!
0"
#8745000
1!
1"
0'
b00 (
b10 )
b11010101 *
b01011111 +
#8760000
0!
0"
#8775000
1!
1"
b01010101 -
#8790000
0!
0"
#8805000
1!
1"
#8820000
0!
0"
#8835000
1!
1"
1'
b11 )
b01000000 *
b01111011 +
#8850000
0!
0"
#8865000
1!
1"
b01000000 -
#8880000
0!
0"
#8895000
1!
1"
#8910000
0!
0"
#8925000
1!
1"
0'
b01 )
b11011001 *
b00010101 +
#8940000
0!
0"
#8955000
1!
1"
b00010001 -
#8970000
0!
0"
#8985000
1!
1"
#9000000
0!
0"
#9015000
1!
1"
1'
b01 (
b10 )
b11000011 *
b10000110 +
#9030000
0!
0"
#9045000
1!
1"
b01111101 -
#9060000
0!
0"
#9075000
1!
1"
#9090000
0!
0"
#9105000
1!
1"
b00 (
b00 )
b00110101 *
b01010111 +
#9120000
0!
0"
#9135000
1!
1"
b00010101 -
#9150000
0!
0"
#9165000
1!
1"
#9180000
0!
0"
#9195000
1!
1"
0'
b11 (
b01 )
b00111111 *
b00101111 +
#9210000
0!
0"
#9225000
1!
1"
b00010000 -
#9240000
0!
0"
#9255000
1!
1"
#9270000
0!
0"
#9285000
1!
1"
b10 )
b00010001 *
b10111001 +
#9300000
0!
0"
#9315000
1!
1"
b10101000 -
#9330000
0!
0"
#9345000
1!
1"
#9360000
0!
0"
#9375000
1!
1"
b00 )
b01100101 *
b00111010 +
#9390000
0!
0"
#9405000
1!
1"
b01011111 -
#9420000
0!
0"
#9435000
1!
1"
#9450000
0!
0"
#9465000
1!
1"
b00 (
b10 )
b11000010 *
b00110101 +
#9480000
0!
0"
#9495000
1!
1"
b00000000 -
#9510000
0!
0"
#9525000
1!
1"
#9540000
0!
0"
#9555000
1!
1"
b10101111 *
b00011000 +
#9570000
0!
0"
#9585000
1!
1"
b00001000 -
#9600000
0!
0"
#9615000
1!
1"
#9630000
0!
0"
#9645000
1!
1"
b01 )
b11100001 *
b01111111 +
#9660000
0!
0"
#9675000
1!
1"
b01100001 -
#9690000
0!
0"
#9705000
1!
1"
#9720000
0!
0"
#9735000
1!
1"
b10 (
b01010110 *
b00001110 +
#9750000
0!
0"
#9765000
1!
1"
b01011110 -
#9780000
0!
0"
#9795000
1!
1"
#9810000
0!
0"
#9825000
1!
1"
1'
b11 )
b00010110 *
b10000101 +
#9840000
0!
0"
#9855000
1!
1"
b10010111 -
#9870000
0!
0"
#9885000
1!
1"
#9900000
0!
0"
#9915000
1!
1"
0'
b01 (
b00 )
b00100100 *
b10111101 +
#9930000
0!
0"
#9945000
1!
1"
b11011011 -
#9960000
0!
0"
#9975000
1!
1"
#9990000
0!
0"
#10005000
1!
1"
1'
b10 (
b11 )
b11111000 *
b00000011 +
#10020000
0!
0"
#10035000
1!
1"
b11111011 -
#10050000
0!
0"
#10065000
1!
1"
#10080000
0!
0"
#10095000
1!
1"
0'
b10101110 *
b11011000 +
#10110000
0!
0"
#10125000
1!
1"
b11111110 -
#10140000
0!
0"
#10155000
1!
1"
#10170000
0!
0"
#10185000
1!
1"
b00 (
b10 )
b11110010 *
b00100000 +
#10200000
0!
0"
#10215000
1!
1"
b00100000 -
#10230000
0!
0"
#10245000
1!
1"
#10260000
0!
0"
#10275000
1!
1"
b11 (
b00 )
b11010110 *
b10001110 +
#10290000
0!
0"
#10305000
1!
1"
b01011000 -
#10320000
0!
0"
#10335000
1!
1"
#10350000
0!
0"
#10365000
1!
1"
b01 (
b01111101 *
b10001001 +
#10380000
0!
0"
#10395000
1!
1"
b11110110 -
#10410000
0!
0"
#10425000
1!
1"
#10440000
0!
0"
#10455000
1!
1"
1'
b10 )
b00011110 *
b01101110 +
#10470000
0!
0"
#10485000
1!
1"
b11110001 -
#10500000
0!
0"
#10515000
1!
1"
#10530000
0!
0"
#10545000
1!
1"
b00101111 *
b01111011 +
#10560000
0!
0"
#10575000
1!
1"
b11010100 -
#10590000
0!
0"
#10605000
1!
1"
#10620000
0!
0"
#10635000
1!
1"
b01 )
b11000100 *
b01000000 +
#10650000
0!
0"
#10665000
1!
1"
b10111111 -
#10680000
0!
0"
#10695000
1!
1"
#10710000
0!
0"
#10725000
1!
1"
0'
b11 )
b01000001 *
b00010101 +
#10740000
0!
0"
#10755000
1!
1"
b11111110 -
#10770000
0!
0"
#10785000
1!
1"
#10800000
0!
0"
#10815000
1!
1"
1'
b00 (
b10 )
b10001000 *
b10000110 +
#10830000
0!
0"
#10845000
1!
1"
b10000000 -
#10860000
0!
0"
#10875000
1!
1"
#10890000
0!
0"
#10905000
1!
1"
0'
b11 (
b00 )
b10000001 *
b11010101 +
#10920000
0!
0"
#10935000
1!
1"
b01010100 -
#10950000
0!
0"
#10965000
1!
1"
#10980000
0!
0"
#10995000
1!
1"
b10 (
b10100011 *
b00010011 +
#11010000
0!
0"
#11025000
1!
1"
b10110011 -
#11040000
0!
0"
#11055000
1!
1"
#11070000
0!
0"
#11085000
1!
1"
b11 (
b10 )
b01011101 *
b11100011 +
#11100000
0!
0"
#11115000
1!
1"
b10111110 -
#11130000
0!
0"
#11145000
1!
1"
#11160000
0!
0"
#11175000
1!
1"
b00 )
b00010001 *
b00111000 +
#11190000
0!
0"
#11205000
1!
1"
b00101001 -
#11220000
0!
0"
#11235000
1!
1"
#11250000
0!
0"
#11265000
1!
1"
1'
b11 )
b10010010 *
b10110010 +
#11280000
0!
0"
#11295000
1!
1"
b00100000 -
#11310000
0!
0"
#11325000
1!
1"
#11340000
0!
0"
#11355000
1!
1"
0'
b11011011 *
b00000100 +
#11370000
0!
0"
#11385000
1!
1"
b11011111 -
#11400000
0!
0"
#11415000
1!
1"
#11430000
0!
0"
#11445000
1!
1"
1'
b00 (
b01 )
b00010011 *
b11111100 +
#11460000
0!
0"
#11475000
1!
1"
b00010000 -
#11490000
0!
0"
#11505000
1!
1"
#11520000
0!
0"
#11535000
1!
1"
0'
b11 (
b11 )
b11001011 *
b11011011 +
#11550000
0!
0"
#11565000
1!
1"
#11580000
0!
0"
#11595000
1!
1"
#11610000
0!
0"
#11625000
1!
1"
b01 (
b01 )
b01000001 *
b10101000 +
#11640000
0!
0"
#11655000
1!
1"
b11111111 -
#11670000
0!
0"
#11685000
1!
1"
#11700000
0!
0"
#11715000
1!
1"
1'
b10 (
b11011001 *
b10111010 +
#11730000
0!
0"
#11745000
1!
1"
b11111011 -
#11760000
0!
0"
#11775000
1!
1"
#11790000
0!
0"
#11805000
1!
1"
b01110100 *
b10101000 +
#11820000
0!
0"
#11835000
1!
1"
b11111100 -
#11850000
0!
0"
#11865000
1!
1"
#11880000
0!
0"
#11895000
1!
1"
b11 (
b00 )
b00000010 *
b01001111 +
#11910000
0!
0"
#11925000
1!
1"
b01001101 -
#11940000
0!
0"
#11955000
1!
1"
#11970000
0!
0"
#11985000
1!
1"
b01 (
b10 )
b10110111 *
b01010110 +
#12000000
0!
0"
#12015000
1!
1"
b11101001 -
#12030000
0!
0"
#12045000
1!
1"
#12060000
0!
0"
#12075000
1!
1"
0'
b00 )
b10100011 *
b10000001 +
#12090000
0!
0"
#12105000
1!
1"
b01111110 -
#12120000
0!
0"
#12135000
1!
1"
#12150000
0!
0"
#12165000
1!
1"
b11 )
b11010011 *
b10011101 +
#12180000
0!
0"
#12195000
1!
1"
b01101110 -
#12210000
0!
0"
#12225000
1!
1"
#12240000
0!
0"
#12255000
1!
1"
b10 (
b00 )
b11000001 *
b11010001 +
#12270000
0!
0"
#12285000
1!
1"
b11010001 -
#12300000
0!
0"
#12315000
1!
1"
#12330000
0!
0"
#12345000
1!
1"
1'
b11 (
b11 )
b11110001 *
b10101110 +
#12360000
0!
0"
#12375000
1!
1"
b01011111 -
#12390000
0!
0"
#12405000
1!
1"
#12420000
0!
0"
#12435000
1!
1"
b00 )
b10101011 *
b00100011 +
#12450000
0!
0"
#12465000
1!
1"
b10001000 -
#12480000
0!
0"
#12495000
1!
1"
#12510000
0!
0"
#12525000
1!
1"
b01 )
b11110000 *
b01011001 +
#12540000
0!
0"
#12555000
1!
1"
b10101001 -
#12570000
0!
0"
#12585000
1!
1"
#12600000
0!
0"
#12615000
1!
1"
b01 (
b10 )
b11100011 *
b11000110 +
#12630000
0!
0"
#12645000
1!
1"
b00111101 -
#12660000
0!
0"
#12675000
1!
1"
#12690000
0!
0"
#12705000
1!
1"
0'
b11 )
b00110101 *
b11000000 +
#12720000
0!
0"
#12735000
1!
1"
b11111111 -
#12750000
0!
0"
#12765000
1!
1"
#12780000
0!
0"
#12795000
1!
1"
b10 (
b10100100 *
b11111000 +
#12810000
0!
0"
#12825000
1!
1"
b11111100 -
#12840000
0!
0"
#12855000
1!
1"
#12870000
0!
0"
#12885000
1!
1"
1'
b11 (
b10 )
b10011100 *
b11111111 +
#12900000
0!
0"
#12915000
1!
1"
b01100011 -
#12930000
0!
0"
#12945000
1!
1"
#12960000
0!
0"
#12975000
1!
1"
b00 (
b11 )
b01110110 *
b10101100 +
#12990000
0!
0"
#13005000
1!
1"
b00100100 -
#13020000
0!
0"
#13035000
1!
1"
#13050000
0!
0"
#13065000
1!
1"
b00 )
b00101000 *
b00100010 +
#13080000
0!
0"
#13095000
1!
1"
b00100000 -
#13110000
0!
0"
#13125000
1!
1"
#13140000
0!
0"
#13155000
1!
1"
0'
b01 )
b01000110 *
b11110000 +
#13170000
0!
0"
#13185000
1!
1"
b01000000 -
#13200000
0!
0"
#13215000
1!
1"
#13230000
0!
0"
#13245000
1!
1"
1'
b01 (
b10 )
b10000010 *
b11011100 +
#13260000
0!
0"
#13275000
1!
1"
b01111111 -
#13290000
0!
0"
#13305000
1!
1"
#13320000
0!
0"
#13335000
1!
1"
0'
b10 (
b11 )
b00110100 *
b00001011 +
#13350000
0!
0"
#13365000
1!
1"
b00111111 -
#13380000
0!
0"
#13395000
1!
1"
#13410000
0!
0"
#13425000
1!
1"
1'
b00 (
b00010110 *
b11111101 +
#13440000
0!
0"
#13455000
1!
1"
b00010100 -
#13470000
0!
0"
#13485000
1!
1"
#13500000
0!
0"
#13515000
1!
1"
b01 (
b10 )
b11101110 *
b11110101 +
#13530000
0!
0"
#13545000
1!
1"
b00011011 -
#13560000
0!
0"
#13575000
1!
1"
#13590000
0!
0"
#13605000
1!
1"
0'
b11 (
b01 )
b11101001 *
b11100101 +
#13620000
0!
0"
